{
  "_artist": "Adriana Jacobs\n",
  "_audioFilename": "Cloudy3",
  "_bpm": 90,
  "_difficulty": 0,
  "_firstBeatOffset": 0,
  "_hitmarkX": 96,
  "_mapEndTime": 64231,
  "_passRate": [
    60
  ],
  "_queue": [
    {
      "_endTime": 5833,
      "_modifiers": {
        "HITMARK_Y_INDEX": 1
      },
      "_overdueTime": 1200,
      "_pictureName": "BeatCorn",
      "_specialMessage": "",
      "_time": 5333,
      "_tolerableDiff": 1000,
      "_tolerance": [
        200,
        500,
        1000
      ],
      "_type": 1,
      "py/object": "__main__.Beat"
    },
    {
      "_endTime": 6666,
      "_modifiers": {
        "HITMARK_Y_INDEX": 1
      },
      "_overdueTime": 1200,
      "_pictureName": "BeatCorn",
      "_specialMessage": "",
      "_time": 6333,
      "_tolerableDiff": 1000,
      "_tolerance": [
        200,
        500,
        1000
      ],
      "_type": 1,
      "py/object": "__main__.Beat"
    },
    {
      "_endTime": 0,
      "_modifiers": {
        "HITMARK_Y_INDEX": 1
      },
      "_overdueTime": 1200,
      "_pictureName": "BeatCorn",
      "_specialMessage": "",
      "_time": 7000,
      "_tolerableDiff": 1000,
      "_tolerance": [
        200,
        500,
        1000
      ],
      "_type": 0,
      "py/object": "__main__.Beat"
    },
    {
      "_endTime": 0,
      "_modifiers": {
        "HITMARK_Y_INDEX": 1
      },
      "_overdueTime": 1200,
      "_pictureName": "BeatCorn",
      "_specialMessage": "",
      "_time": 7333,
      "_tolerableDiff": 1000,
      "_tolerance": [
        200,
        500,
        1000
      ],
      "_type": 0,
      "py/object": "__main__.Beat"
    },
    {
      "_endTime": 8500,
      "_modifiers": {
        "HITMARK_Y_INDEX": 0
      },
      "_overdueTime": 1200,
      "_pictureName": "BeatCorn",
      "_specialMessage": "",
      "_time": 8000,
      "_tolerableDiff": 1000,
      "_tolerance": [
        200,
        500,
        1000
      ],
      "_type": 1,
      "py/object": "__main__.Beat"
    },
    {
      "_endTime": 9500,
      "_modifiers": {
        "HITMARK_Y_INDEX": 2
      },
      "_overdueTime": 1200,
      "_pictureName": "BeatCorn",
      "_specialMessage": "",
      "_time": 9000,
      "_tolerableDiff": 1000,
      "_tolerance": [
        200,
        500,
        1000
      ],
      "_type": 1,
      "py/object": "__main__.Beat"
    },
    {
      "_endTime": 0,
      "_modifiers": {
        "HITMARK_Y_INDEX": 3
      },
      "_overdueTime": 1200,
      "_pictureName": "BeatCorn",
      "_specialMessage": "",
      "_time": 10000,
      "_tolerableDiff": 1000,
      "_tolerance": [
        200,
        500,
        1000
      ],
      "_type": 0,
      "py/object": "__main__.Beat"
    },
    {
      "_endTime": 0,
      "_modifiers": {
        "HITMARK_Y_INDEX": 3
      },
      "_overdueTime": 1200,
      "_pictureName": "BeatCorn",
      "_specialMessage": "",
      "_time": 10166,
      "_tolerableDiff": 1000,
      "_tolerance": [
        200,
        500,
        1000
      ],
      "_type": 0,
      "py/object": "__main__.Beat"
    },
    {
      "_endTime": 0,
      "_modifiers": {
        "HITMARK_Y_INDEX": 3
      },
      "_overdueTime": 1200,
      "_pictureName": "BeatCorn",
      "_specialMessage": "",
      "_time": 10333,
      "_tolerableDiff": 1000,
      "_tolerance": [
        200,
        500,
        1000
      ],
      "_type": 0,
      "py/object": "__main__.Beat"
    },
    {
      "_endTime": 11166,
      "_modifiers": {
        "HITMARK_Y_INDEX": 0
      },
      "_overdueTime": 1200,
      "_pictureName": "BeatCorn",
      "_specialMessage": "",
      "_time": 10666,
      "_tolerableDiff": 1000,
      "_tolerance": [
        200,
        500,
        1000
      ],
      "_type": 1,
      "py/object": "__main__.Beat"
    },
    {
      "_endTime": 12166,
      "_modifiers": {
        "HITMARK_Y_INDEX": 2
      },
      "_overdueTime": 1200,
      "_pictureName": "BeatCorn",
      "_specialMessage": "",
      "_time": 11666,
      "_tolerableDiff": 1000,
      "_tolerance": [
        200,
        500,
        1000
      ],
      "_type": 1,
      "py/object": "__main__.Beat"
    },
    {
      "_endTime": 0,
      "_modifiers": {
        "HITMARK_Y_INDEX": 2
      },
      "_overdueTime": 1200,
      "_pictureName": "BeatCorn",
      "_specialMessage": "",
      "_time": 12666,
      "_tolerableDiff": 1000,
      "_tolerance": [
        200,
        500,
        1000
      ],
      "_type": 0,
      "py/object": "__main__.Beat"
    },
    {
      "_endTime": 13833,
      "_modifiers": {
        "HITMARK_Y_INDEX": 2
      },
      "_overdueTime": 1200,
      "_pictureName": "BeatCorn",
      "_specialMessage": "",
      "_time": 13333,
      "_tolerableDiff": 1000,
      "_tolerance": [
        200,
        500,
        1000
      ],
      "_type": 1,
      "py/object": "__main__.Beat"
    },
    {
      "_endTime": 14833,
      "_modifiers": {
        "HITMARK_Y_INDEX": 0
      },
      "_overdueTime": 1200,
      "_pictureName": "BeatCorn",
      "_specialMessage": "",
      "_time": 14333,
      "_tolerableDiff": 1000,
      "_tolerance": [
        200,
        500,
        1000
      ],
      "_type": 1,
      "py/object": "__main__.Beat"
    },
    {
      "_endTime": 0,
      "_modifiers": {
        "HITMARK_Y_INDEX": 0
      },
      "_overdueTime": 1200,
      "_pictureName": "BeatCorn",
      "_specialMessage": "",
      "_time": 15333,
      "_tolerableDiff": 1000,
      "_tolerance": [
        200,
        500,
        1000
      ],
      "_type": 0,
      "py/object": "__main__.Beat"
    },
    {
      "_endTime": 16500,
      "_modifiers": {
        "HITMARK_Y_INDEX": 0
      },
      "_overdueTime": 1200,
      "_pictureName": "BeatCorn",
      "_specialMessage": "",
      "_time": 16000,
      "_tolerableDiff": 1000,
      "_tolerance": [
        200,
        500,
        1000
      ],
      "_type": 1,
      "py/object": "__main__.Beat"
    },
    {
      "_endTime": 17500,
      "_modifiers": {
        "HITMARK_Y_INDEX": 2
      },
      "_overdueTime": 1200,
      "_pictureName": "BeatCorn",
      "_specialMessage": "",
      "_time": 17000,
      "_tolerableDiff": 1000,
      "_tolerance": [
        200,
        500,
        1000
      ],
      "_type": 1,
      "py/object": "__main__.Beat"
    },
    {
      "_endTime": 0,
      "_modifiers": {
        "HITMARK_Y_INDEX": 2
      },
      "_overdueTime": 1200,
      "_pictureName": "BeatCorn",
      "_specialMessage": "",
      "_time": 18000,
      "_tolerableDiff": 1000,
      "_tolerance": [
        200,
        500,
        1000
      ],
      "_type": 0,
      "py/object": "__main__.Beat"
    },
    {
      "_endTime": 18833,
      "_modifiers": {
        "HITMARK_Y_INDEX": 2
      },
      "_overdueTime": 1200,
      "_pictureName": "BeatCorn",
      "_specialMessage": "",
      "_time": 18666,
      "_tolerableDiff": 1000,
      "_tolerance": [
        200,
        500,
        1000
      ],
      "_type": 1,
      "py/object": "__main__.Beat"
    },
    {
      "_endTime": 0,
      "_modifiers": {
        "HITMARK_Y_INDEX": 2
      },
      "_overdueTime": 1200,
      "_pictureName": "BeatCorn",
      "_specialMessage": "",
      "_time": 19000,
      "_tolerableDiff": 1000,
      "_tolerance": [
        200,
        500,
        1000
      ],
      "_type": 0,
      "py/object": "__main__.Beat"
    },
    {
      "_endTime": 0,
      "_modifiers": {
        "HITMARK_Y_INDEX": 3
      },
      "_overdueTime": 1200,
      "_pictureName": "BeatCorn",
      "_specialMessage": "",
      "_time": 19333,
      "_tolerableDiff": 1000,
      "_tolerance": [
        200,
        500,
        1000
      ],
      "_type": 0,
      "py/object": "__main__.Beat"
    },
    {
      "_endTime": 20333,
      "_modifiers": {
        "HITMARK_Y_INDEX": 0
      },
      "_overdueTime": 1200,
      "_pictureName": "BeatCorn",
      "_specialMessage": "",
      "_time": 19666,
      "_tolerableDiff": 1000,
      "_tolerance": [
        200,
        500,
        1000
      ],
      "_type": 1,
      "py/object": "__main__.Beat"
    },
    {
      "_endTime": 0,
      "_modifiers": {
        "HITMARK_Y_INDEX": 0
      },
      "_overdueTime": 1200,
      "_pictureName": "BeatCorn",
      "_specialMessage": "",
      "_time": 20500,
      "_tolerableDiff": 1000,
      "_tolerance": [
        200,
        500,
        1000
      ],
      "_type": 0,
      "py/object": "__main__.Beat"
    },
    {
      "_endTime": 0,
      "_modifiers": {
        "HITMARK_Y_INDEX": 3
      },
      "_overdueTime": 1200,
      "_pictureName": "BeatCorn",
      "_specialMessage": "",
      "_time": 20666,
      "_tolerableDiff": 1000,
      "_tolerance": [
        200,
        500,
        1000
      ],
      "_type": 0,
      "py/object": "__main__.Beat"
    },
    {
      "_endTime": 0,
      "_modifiers": {
        "HITMARK_Y_INDEX": 0
      },
      "_overdueTime": 1200,
      "_pictureName": "BeatCorn",
      "_specialMessage": "",
      "_time": 20833,
      "_tolerableDiff": 1000,
      "_tolerance": [
        200,
        500,
        1000
      ],
      "_type": 0,
      "py/object": "__main__.Beat"
    },
    {
      "_endTime": 0,
      "_modifiers": {
        "HITMARK_Y_INDEX": 3
      },
      "_overdueTime": 1200,
      "_pictureName": "BeatCorn",
      "_specialMessage": "",
      "_time": 21000,
      "_tolerableDiff": 1000,
      "_tolerance": [
        200,
        500,
        1000
      ],
      "_type": 0,
      "py/object": "__main__.Beat"
    },
    {
      "_endTime": 21833,
      "_modifiers": {
        "HITMARK_Y_INDEX": 0
      },
      "_overdueTime": 1200,
      "_pictureName": "BeatCorn",
      "_specialMessage": "",
      "_time": 21333,
      "_tolerableDiff": 1000,
      "_tolerance": [
        200,
        500,
        1000
      ],
      "_type": 1,
      "py/object": "__main__.Beat"
    },
    {
      "_endTime": 23000,
      "_modifiers": {
        "HITMARK_Y_INDEX": 2
      },
      "_overdueTime": 1200,
      "_pictureName": "BeatCorn",
      "_specialMessage": "",
      "_time": 22500,
      "_tolerableDiff": 1000,
      "_tolerance": [
        200,
        500,
        1000
      ],
      "_type": 1,
      "py/object": "__main__.Beat"
    },
    {
      "_endTime": 0,
      "_modifiers": {
        "HITMARK_Y_INDEX": 0
      },
      "_overdueTime": 1200,
      "_pictureName": "BeatCorn",
      "_specialMessage": "",
      "_time": 23333,
      "_tolerableDiff": 1000,
      "_tolerance": [
        200,
        500,
        1000
      ],
      "_type": 0,
      "py/object": "__main__.Beat"
    },
    {
      "_endTime": 24500,
      "_modifiers": {
        "HITMARK_Y_INDEX": 0
      },
      "_overdueTime": 1200,
      "_pictureName": "BeatCorn",
      "_specialMessage": "",
      "_time": 24000,
      "_tolerableDiff": 1000,
      "_tolerance": [
        200,
        500,
        1000
      ],
      "_type": 1,
      "py/object": "__main__.Beat"
    },
    {
      "_endTime": 25500,
      "_modifiers": {
        "HITMARK_Y_INDEX": 2
      },
      "_overdueTime": 1200,
      "_pictureName": "BeatCorn",
      "_specialMessage": "",
      "_time": 25000,
      "_tolerableDiff": 1000,
      "_tolerance": [
        200,
        500,
        1000
      ],
      "_type": 1,
      "py/object": "__main__.Beat"
    },
    {
      "_endTime": 0,
      "_modifiers": {
        "HITMARK_Y_INDEX": 0
      },
      "_overdueTime": 1200,
      "_pictureName": "BeatCorn",
      "_specialMessage": "",
      "_time": 26000,
      "_tolerableDiff": 1000,
      "_tolerance": [
        200,
        500,
        1000
      ],
      "_type": 0,
      "py/object": "__main__.Beat"
    },
    {
      "_endTime": 27000,
      "_modifiers": {
        "HITMARK_Y_INDEX": 2
      },
      "_overdueTime": 1200,
      "_pictureName": "BeatCorn",
      "_specialMessage": "",
      "_time": 26666,
      "_tolerableDiff": 1000,
      "_tolerance": [
        200,
        500,
        1000
      ],
      "_type": 1,
      "py/object": "__main__.Beat"
    },
    {
      "_endTime": 0,
      "_modifiers": {
        "HITMARK_Y_INDEX": 2
      },
      "_overdueTime": 1200,
      "_pictureName": "BeatCorn",
      "_specialMessage": "",
      "_time": 27166,
      "_tolerableDiff": 1000,
      "_tolerance": [
        200,
        500,
        1000
      ],
      "_type": 0,
      "py/object": "__main__.Beat"
    },
    {
      "_endTime": 28000,
      "_modifiers": {
        "HITMARK_Y_INDEX": 0
      },
      "_overdueTime": 1200,
      "_pictureName": "BeatCorn",
      "_specialMessage": "",
      "_time": 27666,
      "_tolerableDiff": 1000,
      "_tolerance": [
        200,
        500,
        1000
      ],
      "_type": 1,
      "py/object": "__main__.Beat"
    },
    {
      "_endTime": 0,
      "_modifiers": {
        "HITMARK_Y_INDEX": 0
      },
      "_overdueTime": 1200,
      "_pictureName": "BeatCorn",
      "_specialMessage": "",
      "_time": 28166,
      "_tolerableDiff": 1000,
      "_tolerance": [
        200,
        500,
        1000
      ],
      "_type": 0,
      "py/object": "__main__.Beat"
    },
    {
      "_endTime": 28916,
      "_modifiers": {
        "HITMARK_Y_INDEX": 3
      },
      "_overdueTime": 1200,
      "_pictureName": "BeatCorn",
      "_specialMessage": "",
      "_time": 28666,
      "_tolerableDiff": 1000,
      "_tolerance": [
        200,
        500,
        1000
      ],
      "_type": 1,
      "py/object": "__main__.Beat"
    },
    {
      "_endTime": 29666,
      "_modifiers": {
        "HITMARK_Y_INDEX": 2
      },
      "_overdueTime": 1200,
      "_pictureName": "BeatCorn",
      "_specialMessage": "",
      "_time": 29333,
      "_tolerableDiff": 1000,
      "_tolerance": [
        200,
        500,
        1000
      ],
      "_type": 1,
      "py/object": "__main__.Beat"
    },
    {
      "_endTime": 0,
      "_modifiers": {
        "HITMARK_Y_INDEX": 2
      },
      "_overdueTime": 1200,
      "_pictureName": "BeatCorn",
      "_specialMessage": "",
      "_time": 29833,
      "_tolerableDiff": 1000,
      "_tolerance": [
        200,
        500,
        1000
      ],
      "_type": 0,
      "py/object": "__main__.Beat"
    },
    {
      "_endTime": 30666,
      "_modifiers": {
        "HITMARK_Y_INDEX": 1
      },
      "_overdueTime": 1200,
      "_pictureName": "BeatCorn",
      "_specialMessage": "",
      "_time": 30333,
      "_tolerableDiff": 1000,
      "_tolerance": [
        200,
        500,
        1000
      ],
      "_type": 1,
      "py/object": "__main__.Beat"
    },
    {
      "_endTime": 0,
      "_modifiers": {
        "HITMARK_Y_INDEX": 1
      },
      "_overdueTime": 1200,
      "_pictureName": "BeatCorn",
      "_specialMessage": "",
      "_time": 31000,
      "_tolerableDiff": 1000,
      "_tolerance": [
        200,
        500,
        1000
      ],
      "_type": 0,
      "py/object": "__main__.Beat"
    },
    {
      "_endTime": 0,
      "_modifiers": {
        "HITMARK_Y_INDEX": 0
      },
      "_overdueTime": 1200,
      "_pictureName": "BeatCorn",
      "_specialMessage": "",
      "_time": 31333,
      "_tolerableDiff": 1000,
      "_tolerance": [
        200,
        500,
        1000
      ],
      "_type": 0,
      "py/object": "__main__.Beat"
    },
    {
      "_endTime": 0,
      "_modifiers": {
        "HITMARK_Y_INDEX": 3
      },
      "_overdueTime": 1200,
      "_pictureName": "BeatCorn",
      "_specialMessage": "",
      "_time": 31500,
      "_tolerableDiff": 1000,
      "_tolerance": [
        200,
        500,
        1000
      ],
      "_type": 0,
      "py/object": "__main__.Beat"
    },
    {
      "_endTime": 0,
      "_modifiers": {
        "HITMARK_Y_INDEX": 2
      },
      "_overdueTime": 1200,
      "_pictureName": "BeatCorn",
      "_specialMessage": "",
      "_time": 31666,
      "_tolerableDiff": 1000,
      "_tolerance": [
        200,
        500,
        1000
      ],
      "_type": 0,
      "py/object": "__main__.Beat"
    },
    {
      "_endTime": 32500,
      "_modifiers": {
        "HITMARK_Y_INDEX": 2
      },
      "_overdueTime": 1200,
      "_pictureName": "BeatCorn",
      "_specialMessage": "",
      "_time": 32000,
      "_tolerableDiff": 1000,
      "_tolerance": [
        200,
        500,
        1000
      ],
      "_type": 1,
      "py/object": "__main__.Beat"
    },
    {
      "_endTime": 33500,
      "_modifiers": {
        "HITMARK_Y_INDEX": 2
      },
      "_overdueTime": 1200,
      "_pictureName": "BeatCorn",
      "_specialMessage": "",
      "_time": 33000,
      "_tolerableDiff": 1000,
      "_tolerance": [
        200,
        500,
        1000
      ],
      "_type": 1,
      "py/object": "__main__.Beat"
    },
    {
      "_endTime": 0,
      "_modifiers": {
        "HITMARK_Y_INDEX": 1
      },
      "_overdueTime": 1200,
      "_pictureName": "BeatCorn",
      "_specialMessage": "",
      "_time": 34000,
      "_tolerableDiff": 1000,
      "_tolerance": [
        200,
        500,
        1000
      ],
      "_type": 0,
      "py/object": "__main__.Beat"
    },
    {
      "_endTime": 0,
      "_modifiers": {
        "HITMARK_Y_INDEX": 1
      },
      "_overdueTime": 1200,
      "_pictureName": "BeatCorn",
      "_specialMessage": "",
      "_time": 34166,
      "_tolerableDiff": 1000,
      "_tolerance": [
        200,
        500,
        1000
      ],
      "_type": 0,
      "py/object": "__main__.Beat"
    },
    {
      "_endTime": 35166,
      "_modifiers": {
        "HITMARK_Y_INDEX": 0
      },
      "_overdueTime": 1200,
      "_pictureName": "BeatCorn",
      "_specialMessage": "",
      "_time": 34666,
      "_tolerableDiff": 1000,
      "_tolerance": [
        200,
        500,
        1000
      ],
      "_type": 1,
      "py/object": "__main__.Beat"
    },
    {
      "_endTime": 36166,
      "_modifiers": {
        "HITMARK_Y_INDEX": 0
      },
      "_overdueTime": 1200,
      "_pictureName": "BeatCorn",
      "_specialMessage": "",
      "_time": 35666,
      "_tolerableDiff": 1000,
      "_tolerance": [
        200,
        500,
        1000
      ],
      "_type": 1,
      "py/object": "__main__.Beat"
    },
    {
      "_endTime": 0,
      "_modifiers": {
        "HITMARK_Y_INDEX": 1
      },
      "_overdueTime": 1200,
      "_pictureName": "BeatCorn",
      "_specialMessage": "",
      "_time": 36666,
      "_tolerableDiff": 1000,
      "_tolerance": [
        200,
        500,
        1000
      ],
      "_type": 0,
      "py/object": "__main__.Beat"
    },
    {
      "_endTime": 0,
      "_modifiers": {
        "HITMARK_Y_INDEX": 1
      },
      "_overdueTime": 1200,
      "_pictureName": "BeatCorn",
      "_specialMessage": "",
      "_time": 36833,
      "_tolerableDiff": 1000,
      "_tolerance": [
        200,
        500,
        1000
      ],
      "_type": 0,
      "py/object": "__main__.Beat"
    },
    {
      "_endTime": 37833,
      "_modifiers": {
        "HITMARK_Y_INDEX": 2
      },
      "_overdueTime": 1200,
      "_pictureName": "BeatCorn",
      "_specialMessage": "",
      "_time": 37333,
      "_tolerableDiff": 1000,
      "_tolerance": [
        200,
        500,
        1000
      ],
      "_type": 1,
      "py/object": "__main__.Beat"
    },
    {
      "_endTime": 38833,
      "_modifiers": {
        "HITMARK_Y_INDEX": 0
      },
      "_overdueTime": 1200,
      "_pictureName": "BeatCorn",
      "_specialMessage": "",
      "_time": 38333,
      "_tolerableDiff": 1000,
      "_tolerance": [
        200,
        500,
        1000
      ],
      "_type": 1,
      "py/object": "__main__.Beat"
    },
    {
      "_endTime": 0,
      "_modifiers": {
        "HITMARK_Y_INDEX": 1
      },
      "_overdueTime": 1200,
      "_pictureName": "BeatCorn",
      "_specialMessage": "",
      "_time": 39333,
      "_tolerableDiff": 1000,
      "_tolerance": [
        200,
        500,
        1000
      ],
      "_type": 0,
      "py/object": "__main__.Beat"
    },
    {
      "_endTime": 0,
      "_modifiers": {
        "HITMARK_Y_INDEX": 1
      },
      "_overdueTime": 1200,
      "_pictureName": "BeatCorn",
      "_specialMessage": "",
      "_time": 39500,
      "_tolerableDiff": 1000,
      "_tolerance": [
        200,
        500,
        1000
      ],
      "_type": 0,
      "py/object": "__main__.Beat"
    },
    {
      "_endTime": 40250,
      "_modifiers": {
        "HITMARK_Y_INDEX": 2
      },
      "_overdueTime": 1200,
      "_pictureName": "BeatCorn",
      "_specialMessage": "",
      "_time": 40000,
      "_tolerableDiff": 1000,
      "_tolerance": [
        200,
        500,
        1000
      ],
      "_type": 1,
      "py/object": "__main__.Beat"
    },
    {
      "_endTime": 0,
      "_modifiers": {
        "HITMARK_Y_INDEX": 2
      },
      "_overdueTime": 1200,
      "_pictureName": "BeatCorn",
      "_specialMessage": "",
      "_time": 40500,
      "_tolerableDiff": 1000,
      "_tolerance": [
        200,
        500,
        1000
      ],
      "_type": 0,
      "py/object": "__main__.Beat"
    },
    {
      "_endTime": 41333,
      "_modifiers": {
        "HITMARK_Y_INDEX": 0
      },
      "_overdueTime": 1200,
      "_pictureName": "BeatCorn",
      "_specialMessage": "",
      "_time": 41000,
      "_tolerableDiff": 1000,
      "_tolerance": [
        200,
        500,
        1000
      ],
      "_type": 1,
      "py/object": "__main__.Beat"
    },
    {
      "_endTime": 0,
      "_modifiers": {
        "HITMARK_Y_INDEX": 2
      },
      "_overdueTime": 1200,
      "_pictureName": "BeatCorn",
      "_specialMessage": "",
      "_time": 41750,
      "_tolerableDiff": 1000,
      "_tolerance": [
        200,
        500,
        1000
      ],
      "_type": 0,
      "py/object": "__main__.Beat"
    },
    {
      "_endTime": 0,
      "_modifiers": {
        "HITMARK_Y_INDEX": 3
      },
      "_overdueTime": 1200,
      "_pictureName": "BeatCorn",
      "_specialMessage": "",
      "_time": 41916,
      "_tolerableDiff": 1000,
      "_tolerance": [
        200,
        500,
        1000
      ],
      "_type": 0,
      "py/object": "__main__.Beat"
    },
    {
      "_endTime": 0,
      "_modifiers": {
        "HITMARK_Y_INDEX": 0
      },
      "_overdueTime": 1200,
      "_pictureName": "BeatCorn",
      "_specialMessage": "",
      "_time": 42083,
      "_tolerableDiff": 1000,
      "_tolerance": [
        200,
        500,
        1000
      ],
      "_type": 0,
      "py/object": "__main__.Beat"
    },
    {
      "_endTime": 0,
      "_modifiers": {
        "HITMARK_Y_INDEX": 3
      },
      "_overdueTime": 1200,
      "_pictureName": "BeatCorn",
      "_specialMessage": "",
      "_time": 42250,
      "_tolerableDiff": 1000,
      "_tolerance": [
        200,
        500,
        1000
      ],
      "_type": 0,
      "py/object": "__main__.Beat"
    },
    {
      "_endTime": 43250,
      "_modifiers": {
        "HITMARK_Y_INDEX": 3
      },
      "_overdueTime": 1200,
      "_pictureName": "BeatCorn",
      "_specialMessage": "",
      "_time": 42666,
      "_tolerableDiff": 1000,
      "_tolerance": [
        200,
        500,
        1000
      ],
      "_type": 1,
      "py/object": "__main__.Beat"
    },
    {
      "_endTime": 0,
      "_modifiers": {
        "HITMARK_Y_INDEX": 3
      },
      "_overdueTime": 1200,
      "_pictureName": "BeatCorn",
      "_specialMessage": "",
      "_time": 43666,
      "_tolerableDiff": 1000,
      "_tolerance": [
        200,
        500,
        1000
      ],
      "_type": 0,
      "py/object": "__main__.Beat"
    },
    {
      "_endTime": 0,
      "_modifiers": {
        "HITMARK_Y_INDEX": 3
      },
      "_overdueTime": 1200,
      "_pictureName": "BeatCorn",
      "_specialMessage": "",
      "_time": 43833,
      "_tolerableDiff": 1000,
      "_tolerance": [
        200,
        500,
        1000
      ],
      "_type": 0,
      "py/object": "__main__.Beat"
    },
    {
      "_endTime": 44166,
      "_modifiers": {
        "HITMARK_Y_INDEX": 3
      },
      "_overdueTime": 1200,
      "_pictureName": "BeatCorn",
      "_specialMessage": "",
      "_time": 44000,
      "_tolerableDiff": 1000,
      "_tolerance": [
        200,
        500,
        1000
      ],
      "_type": 1,
      "py/object": "__main__.Beat"
    },
    {
      "_endTime": 0,
      "_modifiers": {
        "HITMARK_Y_INDEX": 1
      },
      "_overdueTime": 1200,
      "_pictureName": "BeatCorn",
      "_specialMessage": "",
      "_time": 44666,
      "_tolerableDiff": 1000,
      "_tolerance": [
        200,
        500,
        1000
      ],
      "_type": 0,
      "py/object": "__main__.Beat"
    },
    {
      "_endTime": 0,
      "_modifiers": {
        "HITMARK_Y_INDEX": 1
      },
      "_overdueTime": 1200,
      "_pictureName": "BeatCorn",
      "_specialMessage": "",
      "_time": 44833,
      "_tolerableDiff": 1000,
      "_tolerance": [
        200,
        500,
        1000
      ],
      "_type": 0,
      "py/object": "__main__.Beat"
    },
    {
      "_endTime": 45916,
      "_modifiers": {
        "HITMARK_Y_INDEX": 0
      },
      "_overdueTime": 1200,
      "_pictureName": "BeatCorn",
      "_specialMessage": "",
      "_time": 45333,
      "_tolerableDiff": 1000,
      "_tolerance": [
        200,
        500,
        1000
      ],
      "_type": 1,
      "py/object": "__main__.Beat"
    },
    {
      "_endTime": 0,
      "_modifiers": {
        "HITMARK_Y_INDEX": 0
      },
      "_overdueTime": 1200,
      "_pictureName": "BeatCorn",
      "_specialMessage": "",
      "_time": 46333,
      "_tolerableDiff": 1000,
      "_tolerance": [
        200,
        500,
        1000
      ],
      "_type": 0,
      "py/object": "__main__.Beat"
    },
    {
      "_endTime": 0,
      "_modifiers": {
        "HITMARK_Y_INDEX": 0
      },
      "_overdueTime": 1200,
      "_pictureName": "BeatCorn",
      "_specialMessage": "",
      "_time": 46500,
      "_tolerableDiff": 1000,
      "_tolerance": [
        200,
        500,
        1000
      ],
      "_type": 0,
      "py/object": "__main__.Beat"
    },
    {
      "_endTime": 46833,
      "_modifiers": {
        "HITMARK_Y_INDEX": 0
      },
      "_overdueTime": 1200,
      "_pictureName": "BeatCorn",
      "_specialMessage": "",
      "_time": 46666,
      "_tolerableDiff": 1000,
      "_tolerance": [
        200,
        500,
        1000
      ],
      "_type": 1,
      "py/object": "__main__.Beat"
    },
    {
      "_endTime": 0,
      "_modifiers": {
        "HITMARK_Y_INDEX": 1
      },
      "_overdueTime": 1200,
      "_pictureName": "BeatCorn",
      "_specialMessage": "",
      "_time": 47333,
      "_tolerableDiff": 1000,
      "_tolerance": [
        200,
        500,
        1000
      ],
      "_type": 0,
      "py/object": "__main__.Beat"
    },
    {
      "_endTime": 0,
      "_modifiers": {
        "HITMARK_Y_INDEX": 1
      },
      "_overdueTime": 1200,
      "_pictureName": "BeatCorn",
      "_specialMessage": "",
      "_time": 47500,
      "_tolerableDiff": 1000,
      "_tolerance": [
        200,
        500,
        1000
      ],
      "_type": 0,
      "py/object": "__main__.Beat"
    },
    {
      "_endTime": 0,
      "_modifiers": {
        "HITMARK_Y_INDEX": 2
      },
      "_overdueTime": 1200,
      "_pictureName": "BeatCorn",
      "_specialMessage": "",
      "_time": 48000,
      "_tolerableDiff": 1000,
      "_tolerance": [
        200,
        500,
        1000
      ],
      "_type": 0,
      "py/object": "__main__.Beat"
    },
    {
      "_endTime": 0,
      "_modifiers": {
        "HITMARK_Y_INDEX": 2
      },
      "_overdueTime": 1200,
      "_pictureName": "BeatCorn",
      "_specialMessage": "",
      "_time": 48166,
      "_tolerableDiff": 1000,
      "_tolerance": [
        200,
        500,
        1000
      ],
      "_type": 0,
      "py/object": "__main__.Beat"
    },
    {
      "_endTime": 48500,
      "_modifiers": {
        "HITMARK_Y_INDEX": 3
      },
      "_overdueTime": 1200,
      "_pictureName": "BeatCorn",
      "_specialMessage": "",
      "_time": 48333,
      "_tolerableDiff": 1000,
      "_tolerance": [
        200,
        500,
        1000
      ],
      "_type": 1,
      "py/object": "__main__.Beat"
    },
    {
      "_endTime": 0,
      "_modifiers": {
        "HITMARK_Y_INDEX": 3
      },
      "_overdueTime": 1200,
      "_pictureName": "BeatCorn",
      "_specialMessage": "",
      "_time": 48833,
      "_tolerableDiff": 1000,
      "_tolerance": [
        200,
        500,
        1000
      ],
      "_type": 0,
      "py/object": "__main__.Beat"
    },
    {
      "_endTime": 0,
      "_modifiers": {
        "HITMARK_Y_INDEX": 3
      },
      "_overdueTime": 1200,
      "_pictureName": "BeatCorn",
      "_specialMessage": "",
      "_time": 49000,
      "_tolerableDiff": 1000,
      "_tolerance": [
        200,
        500,
        1000
      ],
      "_type": 0,
      "py/object": "__main__.Beat"
    },
    {
      "_endTime": 49333,
      "_modifiers": {
        "HITMARK_Y_INDEX": 0
      },
      "_overdueTime": 1200,
      "_pictureName": "BeatCorn",
      "_specialMessage": "",
      "_time": 49166,
      "_tolerableDiff": 1000,
      "_tolerance": [
        200,
        500,
        1000
      ],
      "_type": 1,
      "py/object": "__main__.Beat"
    },
    {
      "_endTime": 0,
      "_modifiers": {
        "HITMARK_Y_INDEX": 0
      },
      "_overdueTime": 1200,
      "_pictureName": "BeatCorn",
      "_specialMessage": "",
      "_time": 50000,
      "_tolerableDiff": 1000,
      "_tolerance": [
        200,
        500,
        1000
      ],
      "_type": 0,
      "py/object": "__main__.Beat"
    },
    {
      "_endTime": 0,
      "_modifiers": {
        "HITMARK_Y_INDEX": 0
      },
      "_overdueTime": 1200,
      "_pictureName": "BeatCorn",
      "_specialMessage": "",
      "_time": 50166,
      "_tolerableDiff": 1000,
      "_tolerance": [
        200,
        500,
        1000
      ],
      "_type": 0,
      "py/object": "__main__.Beat"
    },
    {
      "_endTime": 0,
      "_modifiers": {
        "HITMARK_Y_INDEX": 2
      },
      "_overdueTime": 1200,
      "_pictureName": "BeatCorn",
      "_specialMessage": "",
      "_time": 50750,
      "_tolerableDiff": 1000,
      "_tolerance": [
        200,
        500,
        1000
      ],
      "_type": 0,
      "py/object": "__main__.Beat"
    },
    {
      "_endTime": 0,
      "_modifiers": {
        "HITMARK_Y_INDEX": 0
      },
      "_overdueTime": 1200,
      "_pictureName": "BeatCorn",
      "_specialMessage": "",
      "_time": 50916,
      "_tolerableDiff": 1000,
      "_tolerance": [
        200,
        500,
        1000
      ],
      "_type": 0,
      "py/object": "__main__.Beat"
    },
    {
      "_endTime": 51250,
      "_modifiers": {
        "HITMARK_Y_INDEX": 1
      },
      "_overdueTime": 1200,
      "_pictureName": "BeatCorn",
      "_specialMessage": "",
      "_time": 51083,
      "_tolerableDiff": 1000,
      "_tolerance": [
        200,
        500,
        1000
      ],
      "_type": 1,
      "py/object": "__main__.Beat"
    },
    {
      "_endTime": 52333,
      "_modifiers": {
        "HITMARK_Y_INDEX": 0
      },
      "_overdueTime": 1200,
      "_pictureName": "BeatCorn",
      "_specialMessage": "",
      "_time": 51666,
      "_tolerableDiff": 1000,
      "_tolerance": [
        200,
        500,
        1000
      ],
      "_type": 1,
      "py/object": "__main__.Beat"
    },
    {
      "_endTime": 52833,
      "_modifiers": {
        "HITMARK_Y_INDEX": 2
      },
      "_overdueTime": 1200,
      "_pictureName": "BeatCorn",
      "_specialMessage": "",
      "_time": 52666,
      "_tolerableDiff": 1000,
      "_tolerance": [
        200,
        500,
        1000
      ],
      "_type": 1,
      "py/object": "__main__.Beat"
    },
    {
      "_endTime": 0,
      "_modifiers": {
        "HITMARK_Y_INDEX": 2
      },
      "_overdueTime": 1200,
      "_pictureName": "BeatCorn",
      "_specialMessage": "",
      "_time": 52916,
      "_tolerableDiff": 1000,
      "_tolerance": [
        200,
        500,
        1000
      ],
      "_type": 0,
      "py/object": "__main__.Beat"
    },
    {
      "_endTime": 0,
      "_modifiers": {
        "HITMARK_Y_INDEX": 2
      },
      "_overdueTime": 1200,
      "_pictureName": "BeatCorn",
      "_specialMessage": "",
      "_time": 53000,
      "_tolerableDiff": 1000,
      "_tolerance": [
        200,
        500,
        1000
      ],
      "_type": 0,
      "py/object": "__main__.Beat"
    },
    {
      "_endTime": 53833,
      "_modifiers": {
        "HITMARK_Y_INDEX": 2
      },
      "_overdueTime": 1200,
      "_pictureName": "BeatCorn",
      "_specialMessage": "",
      "_time": 53333,
      "_tolerableDiff": 1000,
      "_tolerance": [
        200,
        500,
        1000
      ],
      "_type": 1,
      "py/object": "__main__.Beat"
    },
    {
      "_endTime": 54833,
      "_modifiers": {
        "HITMARK_Y_INDEX": 3
      },
      "_overdueTime": 1200,
      "_pictureName": "BeatCorn",
      "_specialMessage": "",
      "_time": 54333,
      "_tolerableDiff": 1000,
      "_tolerance": [
        200,
        500,
        1000
      ],
      "_type": 1,
      "py/object": "__main__.Beat"
    },
    {
      "_endTime": 0,
      "_modifiers": {
        "HITMARK_Y_INDEX": 0
      },
      "_overdueTime": 1200,
      "_pictureName": "BeatCorn",
      "_specialMessage": "",
      "_time": 55333,
      "_tolerableDiff": 1000,
      "_tolerance": [
        200,
        500,
        1000
      ],
      "_type": 0,
      "py/object": "__main__.Beat"
    },
    {
      "_endTime": 0,
      "_modifiers": {
        "HITMARK_Y_INDEX": 0
      },
      "_overdueTime": 1200,
      "_pictureName": "BeatCorn",
      "_specialMessage": "",
      "_time": 55500,
      "_tolerableDiff": 1000,
      "_tolerance": [
        200,
        500,
        1000
      ],
      "_type": 0,
      "py/object": "__main__.Beat"
    },
    {
      "_endTime": 56500,
      "_modifiers": {
        "HITMARK_Y_INDEX": 0
      },
      "_overdueTime": 1200,
      "_pictureName": "BeatCorn",
      "_specialMessage": "",
      "_time": 56000,
      "_tolerableDiff": 1000,
      "_tolerance": [
        200,
        500,
        1000
      ],
      "_type": 1,
      "py/object": "__main__.Beat"
    },
    {
      "_endTime": 57500,
      "_modifiers": {
        "HITMARK_Y_INDEX": 3
      },
      "_overdueTime": 1200,
      "_pictureName": "BeatCorn",
      "_specialMessage": "",
      "_time": 57000,
      "_tolerableDiff": 1000,
      "_tolerance": [
        200,
        500,
        1000
      ],
      "_type": 1,
      "py/object": "__main__.Beat"
    },
    {
      "_endTime": 0,
      "_modifiers": {
        "HITMARK_Y_INDEX": 2
      },
      "_overdueTime": 1200,
      "_pictureName": "BeatCorn",
      "_specialMessage": "",
      "_time": 58000,
      "_tolerableDiff": 1000,
      "_tolerance": [
        200,
        500,
        1000
      ],
      "_type": 0,
      "py/object": "__main__.Beat"
    },
    {
      "_endTime": 0,
      "_modifiers": {
        "HITMARK_Y_INDEX": 2
      },
      "_overdueTime": 1200,
      "_pictureName": "BeatCorn",
      "_specialMessage": "",
      "_time": 58166,
      "_tolerableDiff": 1000,
      "_tolerance": [
        200,
        500,
        1000
      ],
      "_type": 0,
      "py/object": "__main__.Beat"
    },
    {
      "_endTime": 59166,
      "_modifiers": {
        "HITMARK_Y_INDEX": 2
      },
      "_overdueTime": 1200,
      "_pictureName": "BeatCorn",
      "_specialMessage": "",
      "_time": 58666,
      "_tolerableDiff": 1000,
      "_tolerance": [
        200,
        500,
        1000
      ],
      "_type": 1,
      "py/object": "__main__.Beat"
    },
    {
      "_endTime": 60166,
      "_modifiers": {
        "HITMARK_Y_INDEX": 0
      },
      "_overdueTime": 1200,
      "_pictureName": "BeatCorn",
      "_specialMessage": "",
      "_time": 59666,
      "_tolerableDiff": 1000,
      "_tolerance": [
        200,
        500,
        1000
      ],
      "_type": 1,
      "py/object": "__main__.Beat"
    },
    {
      "_endTime": 0,
      "_modifiers": {
        "HITMARK_Y_INDEX": 1
      },
      "_overdueTime": 1200,
      "_pictureName": "BeatCorn",
      "_specialMessage": "",
      "_time": 60666,
      "_tolerableDiff": 1000,
      "_tolerance": [
        200,
        500,
        1000
      ],
      "_type": 0,
      "py/object": "__main__.Beat"
    },
    {
      "_endTime": 0,
      "_modifiers": {
        "HITMARK_Y_INDEX": 1
      },
      "_overdueTime": 1200,
      "_pictureName": "BeatCorn",
      "_specialMessage": "",
      "_time": 60833,
      "_tolerableDiff": 1000,
      "_tolerance": [
        200,
        500,
        1000
      ],
      "_type": 0,
      "py/object": "__main__.Beat"
    },
    {
      "_endTime": 61666,
      "_modifiers": {
        "HITMARK_Y_INDEX": 2
      },
      "_overdueTime": 1200,
      "_pictureName": "BeatCorn",
      "_specialMessage": "",
      "_time": 61333,
      "_tolerableDiff": 1000,
      "_tolerance": [
        200,
        500,
        1000
      ],
      "_type": 1,
      "py/object": "__main__.Beat"
    },
    {
      "_endTime": 0,
      "_modifiers": {
        "HITMARK_Y_INDEX": 3
      },
      "_overdueTime": 1200,
      "_pictureName": "BeatCorn",
      "_specialMessage": "",
      "_time": 62000,
      "_tolerableDiff": 1000,
      "_tolerance": [
        200,
        500,
        1000
      ],
      "_type": 0,
      "py/object": "__main__.Beat"
    },
    {
      "_endTime": 62833,
      "_modifiers": {
        "HITMARK_Y_INDEX": 0
      },
      "_overdueTime": 1200,
      "_pictureName": "BeatCorn",
      "_specialMessage": "",
      "_time": 62500,
      "_tolerableDiff": 1000,
      "_tolerance": [
        200,
        500,
        1000
      ],
      "_type": 1,
      "py/object": "__main__.Beat"
    },
    {
      "_endTime": 0,
      "_modifiers": {
        "HITMARK_Y_INDEX": 0
      },
      "_overdueTime": 1200,
      "_pictureName": "BeatCorn",
      "_specialMessage": "",
      "_time": 63333,
      "_tolerableDiff": 1000,
      "_tolerance": [
        200,
        500,
        1000
      ],
      "_type": 0,
      "py/object": "__main__.Beat"
    },
    {
      "_endTime": 0,
      "_modifiers": {
        "HITMARK_Y_INDEX": 3
      },
      "_overdueTime": 1200,
      "_pictureName": "BeatCorn",
      "_specialMessage": "",
      "_time": 63500,
      "_tolerableDiff": 1000,
      "_tolerance": [
        200,
        500,
        1000
      ],
      "_type": 0,
      "py/object": "__main__.Beat"
    },
    {
      "_endTime": 0,
      "_modifiers": {
        "HITMARK_Y_INDEX": 2
      },
      "_overdueTime": 1200,
      "_pictureName": "BeatCorn",
      "_specialMessage": "",
      "_time": 63666,
      "_tolerableDiff": 1000,
      "_tolerance": [
        200,
        500,
        1000
      ],
      "_type": 0,
      "py/object": "__main__.Beat"
    }
  ],
  "_screenTime": 1400,
  "_songEndTime": 61666,
  "_soundEffectList": {
    "BadSound": "Error",
    "ExcellentSound": "Hitnormal",
    "MissSound": "Miss",
    "OkaySound": "Hitnormal"
  },
  "_tickInterval": 333.3333333,
  "_title": "Cloudy3\n",
  "_tolerance": [
    22,
    43,
    64
  ],
  "py/object": "__main__.Map"
}