{
  "_artist": "Adriana Jacobs\n",
  "_audioFilename": "Cloudy4",
  "_bpm": 90,
  "_difficulty": 0,
  "_firstBeatOffset": 0,
  "_hitmarkX": 96,
  "_mapEndTime": 64231,
  "_passRate": [
    80
  ],
  "_queue": [
    {
      "_endTime": 6666,
      "_modifiers": {
        "HITMARK_Y_INDEX": 1
      },
      "_overdueTime": 1200,
      "_pictureName": "BeatCorn",
      "_specialMessage": "",
      "_time": 5333,
      "_tolerableDiff": 1000,
      "_tolerance": [
        200,
        500,
        1000
      ],
      "_type": 1,
      "py/object": "__main__.Beat"
    },
    {
      "_endTime": 9000,
      "_modifiers": {
        "HITMARK_Y_INDEX": 0
      },
      "_overdueTime": 1200,
      "_pictureName": "BeatCorn",
      "_specialMessage": "",
      "_time": 8000,
      "_tolerableDiff": 1000,
      "_tolerance": [
        200,
        500,
        1000
      ],
      "_type": 1,
      "py/object": "__main__.Beat"
    },
    {
      "_endTime": 10750,
      "_modifiers": {
        "HITMARK_Y_INDEX": 3
      },
      "_overdueTime": 1200,
      "_pictureName": "BeatCorn",
      "_specialMessage": "",
      "_time": 10250,
      "_tolerableDiff": 1000,
      "_tolerance": [
        200,
        500,
        1000
      ],
      "_type": 1,
      "py/object": "__main__.Beat"
    },
    {
      "_endTime": 11833,
      "_modifiers": {
        "HITMARK_Y_INDEX": 1
      },
      "_overdueTime": 1200,
      "_pictureName": "BeatCorn",
      "_specialMessage": "",
      "_time": 10833,
      "_tolerableDiff": 1000,
      "_tolerance": [
        200,
        500,
        1000
      ],
      "_type": 1,
      "py/object": "__main__.Beat"
    },
    {
      "_endTime": 0,
      "_modifiers": {
        "HITMARK_Y_INDEX": 1
      },
      "_overdueTime": 1200,
      "_pictureName": "BeatCorn",
      "_specialMessage": "",
      "_time": 12583,
      "_tolerableDiff": 1000,
      "_tolerance": [
        200,
        500,
        1000
      ],
      "_type": 0,
      "py/object": "__main__.Beat"
    },
    {
      "_endTime": 0,
      "_modifiers": {
        "HITMARK_Y_INDEX": 0
      },
      "_overdueTime": 1200,
      "_pictureName": "BeatCorn",
      "_specialMessage": "",
      "_time": 12833,
      "_tolerableDiff": 1000,
      "_tolerance": [
        200,
        500,
        1000
      ],
      "_type": 0,
      "py/object": "__main__.Beat"
    },
    {
      "_endTime": 13666,
      "_modifiers": {
        "HITMARK_Y_INDEX": 3
      },
      "_overdueTime": 1200,
      "_pictureName": "BeatCorn",
      "_specialMessage": "",
      "_time": 13083,
      "_tolerableDiff": 1000,
      "_tolerance": [
        200,
        500,
        1000
      ],
      "_type": 1,
      "py/object": "__main__.Beat"
    },
    {
      "_endTime": 14833,
      "_modifiers": {
        "HITMARK_Y_INDEX": 3
      },
      "_overdueTime": 1200,
      "_pictureName": "BeatCorn",
      "_specialMessage": "",
      "_time": 14166,
      "_tolerableDiff": 1000,
      "_tolerance": [
        200,
        500,
        1000
      ],
      "_type": 1,
      "py/object": "__main__.Beat"
    },
    {
      "_endTime": 0,
      "_modifiers": {
        "HITMARK_Y_INDEX": 2
      },
      "_overdueTime": 1200,
      "_pictureName": "BeatCorn",
      "_specialMessage": "",
      "_time": 15083,
      "_tolerableDiff": 1000,
      "_tolerance": [
        200,
        500,
        1000
      ],
      "_type": 0,
      "py/object": "__main__.Beat"
    },
    {
      "_endTime": 0,
      "_modifiers": {
        "HITMARK_Y_INDEX": 2
      },
      "_overdueTime": 1200,
      "_pictureName": "BeatCorn",
      "_specialMessage": "",
      "_time": 15416,
      "_tolerableDiff": 1000,
      "_tolerance": [
        200,
        500,
        1000
      ],
      "_type": 0,
      "py/object": "__main__.Beat"
    },
    {
      "_endTime": 16000,
      "_modifiers": {
        "HITMARK_Y_INDEX": 2
      },
      "_overdueTime": 1200,
      "_pictureName": "BeatCorn",
      "_specialMessage": "",
      "_time": 15833,
      "_tolerableDiff": 1000,
      "_tolerance": [
        200,
        500,
        1000
      ],
      "_type": 1,
      "py/object": "__main__.Beat"
    },
    {
      "_endTime": 16750,
      "_modifiers": {
        "HITMARK_Y_INDEX": 2
      },
      "_overdueTime": 1200,
      "_pictureName": "BeatCorn",
      "_specialMessage": "",
      "_time": 16166,
      "_tolerableDiff": 1000,
      "_tolerance": [
        200,
        500,
        1000
      ],
      "_type": 1,
      "py/object": "__main__.Beat"
    },
    {
      "_endTime": 0,
      "_modifiers": {
        "HITMARK_Y_INDEX": 0
      },
      "_overdueTime": 1200,
      "_pictureName": "BeatCorn",
      "_specialMessage": "",
      "_time": 17333,
      "_tolerableDiff": 1000,
      "_tolerance": [
        200,
        500,
        1000
      ],
      "_type": 0,
      "py/object": "__main__.Beat"
    },
    {
      "_endTime": 0,
      "_modifiers": {
        "HITMARK_Y_INDEX": 1
      },
      "_overdueTime": 1200,
      "_pictureName": "BeatCorn",
      "_specialMessage": "",
      "_time": 17500,
      "_tolerableDiff": 1000,
      "_tolerance": [
        200,
        500,
        1000
      ],
      "_type": 0,
      "py/object": "__main__.Beat"
    },
    {
      "_endTime": 0,
      "_modifiers": {
        "HITMARK_Y_INDEX": 0
      },
      "_overdueTime": 1200,
      "_pictureName": "BeatCorn",
      "_specialMessage": "",
      "_time": 17666,
      "_tolerableDiff": 1000,
      "_tolerance": [
        200,
        500,
        1000
      ],
      "_type": 0,
      "py/object": "__main__.Beat"
    },
    {
      "_endTime": 19333,
      "_modifiers": {
        "HITMARK_Y_INDEX": 1
      },
      "_overdueTime": 1200,
      "_pictureName": "BeatCorn",
      "_specialMessage": "",
      "_time": 18666,
      "_tolerableDiff": 1000,
      "_tolerance": [
        200,
        500,
        1000
      ],
      "_type": 1,
      "py/object": "__main__.Beat"
    },
    {
      "_endTime": 20500,
      "_modifiers": {
        "HITMARK_Y_INDEX": 1
      },
      "_overdueTime": 1200,
      "_pictureName": "BeatCorn",
      "_specialMessage": "",
      "_time": 20000,
      "_tolerableDiff": 1000,
      "_tolerance": [
        200,
        500,
        1000
      ],
      "_type": 1,
      "py/object": "__main__.Beat"
    },
    {
      "_endTime": 0,
      "_modifiers": {
        "HITMARK_Y_INDEX": 0
      },
      "_overdueTime": 1200,
      "_pictureName": "BeatCorn",
      "_specialMessage": "",
      "_time": 21333,
      "_tolerableDiff": 1000,
      "_tolerance": [
        200,
        500,
        1000
      ],
      "_type": 0,
      "py/object": "__main__.Beat"
    },
    {
      "_endTime": 23666,
      "_modifiers": {
        "HITMARK_Y_INDEX": 0
      },
      "_overdueTime": 1200,
      "_pictureName": "BeatCorn",
      "_specialMessage": "",
      "_time": 22000,
      "_tolerableDiff": 1000,
      "_tolerance": [
        200,
        500,
        1000
      ],
      "_type": 1,
      "py/object": "__main__.Beat"
    },
    {
      "_endTime": 0,
      "_modifiers": {
        "HITMARK_Y_INDEX": 3
      },
      "_overdueTime": 1200,
      "_pictureName": "BeatCorn",
      "_specialMessage": "",
      "_time": 23833,
      "_tolerableDiff": 1000,
      "_tolerance": [
        200,
        500,
        1000
      ],
      "_type": 0,
      "py/object": "__main__.Beat"
    },
    {
      "_endTime": 0,
      "_modifiers": {
        "HITMARK_Y_INDEX": 2
      },
      "_overdueTime": 1200,
      "_pictureName": "BeatCorn",
      "_specialMessage": "",
      "_time": 24166,
      "_tolerableDiff": 1000,
      "_tolerance": [
        200,
        500,
        1000
      ],
      "_type": 0,
      "py/object": "__main__.Beat"
    },
    {
      "_endTime": 25583,
      "_modifiers": {
        "HITMARK_Y_INDEX": 2
      },
      "_overdueTime": 1200,
      "_pictureName": "BeatCorn",
      "_specialMessage": "",
      "_time": 24583,
      "_tolerableDiff": 1000,
      "_tolerance": [
        200,
        500,
        1000
      ],
      "_type": 1,
      "py/object": "__main__.Beat"
    },
    {
      "_endTime": 26666,
      "_modifiers": {
        "HITMARK_Y_INDEX": 2
      },
      "_overdueTime": 1200,
      "_pictureName": "BeatCorn",
      "_specialMessage": "",
      "_time": 26500,
      "_tolerableDiff": 1000,
      "_tolerance": [
        200,
        500,
        1000
      ],
      "_type": 1,
      "py/object": "__main__.Beat"
    },
    {
      "_endTime": 0,
      "_modifiers": {
        "HITMARK_Y_INDEX": 2
      },
      "_overdueTime": 1200,
      "_pictureName": "BeatCorn",
      "_specialMessage": "",
      "_time": 26916,
      "_tolerableDiff": 1000,
      "_tolerance": [
        200,
        500,
        1000
      ],
      "_type": 0,
      "py/object": "__main__.Beat"
    },
    {
      "_endTime": 0,
      "_modifiers": {
        "HITMARK_Y_INDEX": 0
      },
      "_overdueTime": 1200,
      "_pictureName": "BeatCorn",
      "_specialMessage": "",
      "_time": 27500,
      "_tolerableDiff": 1000,
      "_tolerance": [
        200,
        500,
        1000
      ],
      "_type": 0,
      "py/object": "__main__.Beat"
    },
    {
      "_endTime": 29333,
      "_modifiers": {
        "HITMARK_Y_INDEX": 0
      },
      "_overdueTime": 1200,
      "_pictureName": "BeatCorn",
      "_specialMessage": "",
      "_time": 28666,
      "_tolerableDiff": 1000,
      "_tolerance": [
        200,
        500,
        1000
      ],
      "_type": 1,
      "py/object": "__main__.Beat"
    },
    {
      "_endTime": 30666,
      "_modifiers": {
        "HITMARK_Y_INDEX": 3
      },
      "_overdueTime": 1200,
      "_pictureName": "BeatCorn",
      "_specialMessage": "",
      "_time": 30000,
      "_tolerableDiff": 1000,
      "_tolerance": [
        200,
        500,
        1000
      ],
      "_type": 1,
      "py/object": "__main__.Beat"
    },
    {
      "_endTime": 31833,
      "_modifiers": {
        "HITMARK_Y_INDEX": 2
      },
      "_overdueTime": 1200,
      "_pictureName": "BeatCorn",
      "_specialMessage": "",
      "_time": 31333,
      "_tolerableDiff": 1000,
      "_tolerance": [
        200,
        500,
        1000
      ],
      "_type": 1,
      "py/object": "__main__.Beat"
    },
    {
      "_endTime": 0,
      "_modifiers": {
        "HITMARK_Y_INDEX": 2
      },
      "_overdueTime": 1200,
      "_pictureName": "BeatCorn",
      "_specialMessage": "",
      "_time": 32000,
      "_tolerableDiff": 1000,
      "_tolerance": [
        200,
        500,
        1000
      ],
      "_type": 0,
      "py/object": "__main__.Beat"
    },
    {
      "_endTime": 33333,
      "_modifiers": {
        "HITMARK_Y_INDEX": 2
      },
      "_overdueTime": 1200,
      "_pictureName": "BeatCorn",
      "_specialMessage": "",
      "_time": 33000,
      "_tolerableDiff": 1000,
      "_tolerance": [
        200,
        500,
        1000
      ],
      "_type": 1,
      "py/object": "__main__.Beat"
    },
    {
      "_endTime": 0,
      "_modifiers": {
        "HITMARK_Y_INDEX": 2
      },
      "_overdueTime": 1200,
      "_pictureName": "BeatCorn",
      "_specialMessage": "",
      "_time": 34000,
      "_tolerableDiff": 1000,
      "_tolerance": [
        200,
        500,
        1000
      ],
      "_type": 0,
      "py/object": "__main__.Beat"
    },
    {
      "_endTime": 0,
      "_modifiers": {
        "HITMARK_Y_INDEX": 3
      },
      "_overdueTime": 1200,
      "_pictureName": "BeatCorn",
      "_specialMessage": "",
      "_time": 34333,
      "_tolerableDiff": 1000,
      "_tolerance": [
        200,
        500,
        1000
      ],
      "_type": 0,
      "py/object": "__main__.Beat"
    },
    {
      "_endTime": 35000,
      "_modifiers": {
        "HITMARK_Y_INDEX": 0
      },
      "_overdueTime": 1200,
      "_pictureName": "BeatCorn",
      "_specialMessage": "",
      "_time": 34666,
      "_tolerableDiff": 1000,
      "_tolerance": [
        200,
        500,
        1000
      ],
      "_type": 1,
      "py/object": "__main__.Beat"
    },
    {
      "_endTime": 36000,
      "_modifiers": {
        "HITMARK_Y_INDEX": 0
      },
      "_overdueTime": 1200,
      "_pictureName": "BeatCorn",
      "_specialMessage": "",
      "_time": 35666,
      "_tolerableDiff": 1000,
      "_tolerance": [
        200,
        500,
        1000
      ],
      "_type": 1,
      "py/object": "__main__.Beat"
    },
    {
      "_endTime": 0,
      "_modifiers": {
        "HITMARK_Y_INDEX": 0
      },
      "_overdueTime": 1200,
      "_pictureName": "BeatCorn",
      "_specialMessage": "",
      "_time": 36666,
      "_tolerableDiff": 1000,
      "_tolerance": [
        200,
        500,
        1000
      ],
      "_type": 0,
      "py/object": "__main__.Beat"
    },
    {
      "_endTime": 0,
      "_modifiers": {
        "HITMARK_Y_INDEX": 3
      },
      "_overdueTime": 1200,
      "_pictureName": "BeatCorn",
      "_specialMessage": "",
      "_time": 37000,
      "_tolerableDiff": 1000,
      "_tolerance": [
        200,
        500,
        1000
      ],
      "_type": 0,
      "py/object": "__main__.Beat"
    },
    {
      "_endTime": 37666,
      "_modifiers": {
        "HITMARK_Y_INDEX": 2
      },
      "_overdueTime": 1200,
      "_pictureName": "BeatCorn",
      "_specialMessage": "",
      "_time": 37333,
      "_tolerableDiff": 1000,
      "_tolerance": [
        200,
        500,
        1000
      ],
      "_type": 1,
      "py/object": "__main__.Beat"
    },
    {
      "_endTime": 39000,
      "_modifiers": {
        "HITMARK_Y_INDEX": 2
      },
      "_overdueTime": 1200,
      "_pictureName": "BeatCorn",
      "_specialMessage": "",
      "_time": 38333,
      "_tolerableDiff": 1000,
      "_tolerance": [
        200,
        500,
        1000
      ],
      "_type": 1,
      "py/object": "__main__.Beat"
    },
    {
      "_endTime": 0,
      "_modifiers": {
        "HITMARK_Y_INDEX": 2
      },
      "_overdueTime": 1200,
      "_pictureName": "BeatCorn",
      "_specialMessage": "",
      "_time": 39333,
      "_tolerableDiff": 1000,
      "_tolerance": [
        200,
        500,
        1000
      ],
      "_type": 0,
      "py/object": "__main__.Beat"
    },
    {
      "_endTime": 0,
      "_modifiers": {
        "HITMARK_Y_INDEX": 3
      },
      "_overdueTime": 1200,
      "_pictureName": "BeatCorn",
      "_specialMessage": "",
      "_time": 39666,
      "_tolerableDiff": 1000,
      "_tolerance": [
        200,
        500,
        1000
      ],
      "_type": 0,
      "py/object": "__main__.Beat"
    },
    {
      "_endTime": 0,
      "_modifiers": {
        "HITMARK_Y_INDEX": 1
      },
      "_overdueTime": 1200,
      "_pictureName": "BeatCorn",
      "_specialMessage": "",
      "_time": 40000,
      "_tolerableDiff": 1000,
      "_tolerance": [
        200,
        500,
        1000
      ],
      "_type": 0,
      "py/object": "__main__.Beat"
    },
    {
      "_endTime": 0,
      "_modifiers": {
        "HITMARK_Y_INDEX": 1
      },
      "_overdueTime": 1200,
      "_pictureName": "BeatCorn",
      "_specialMessage": "",
      "_time": 41000,
      "_tolerableDiff": 1000,
      "_tolerance": [
        200,
        500,
        1000
      ],
      "_type": 0,
      "py/object": "__main__.Beat"
    },
    {
      "_endTime": 0,
      "_modifiers": {
        "HITMARK_Y_INDEX": 1
      },
      "_overdueTime": 1200,
      "_pictureName": "BeatCorn",
      "_specialMessage": "",
      "_time": 42000,
      "_tolerableDiff": 1000,
      "_tolerance": [
        200,
        500,
        1000
      ],
      "_type": 0,
      "py/object": "__main__.Beat"
    },
    {
      "_endTime": 0,
      "_modifiers": {
        "HITMARK_Y_INDEX": 3
      },
      "_overdueTime": 1200,
      "_pictureName": "BeatCorn",
      "_specialMessage": "",
      "_time": 42333,
      "_tolerableDiff": 1000,
      "_tolerance": [
        200,
        500,
        1000
      ],
      "_type": 0,
      "py/object": "__main__.Beat"
    },
    {
      "_endTime": 0,
      "_modifiers": {
        "HITMARK_Y_INDEX": 0
      },
      "_overdueTime": 1200,
      "_pictureName": "BeatCorn",
      "_specialMessage": "",
      "_time": 42666,
      "_tolerableDiff": 1000,
      "_tolerance": [
        200,
        500,
        1000
      ],
      "_type": 0,
      "py/object": "__main__.Beat"
    },
    {
      "_endTime": 0,
      "_modifiers": {
        "HITMARK_Y_INDEX": 0
      },
      "_overdueTime": 1200,
      "_pictureName": "BeatCorn",
      "_specialMessage": "",
      "_time": 43666,
      "_tolerableDiff": 1000,
      "_tolerance": [
        200,
        500,
        1000
      ],
      "_type": 0,
      "py/object": "__main__.Beat"
    },
    {
      "_endTime": 0,
      "_modifiers": {
        "HITMARK_Y_INDEX": 0
      },
      "_overdueTime": 1200,
      "_pictureName": "BeatCorn",
      "_specialMessage": "",
      "_time": 44666,
      "_tolerableDiff": 1000,
      "_tolerance": [
        200,
        500,
        1000
      ],
      "_type": 0,
      "py/object": "__main__.Beat"
    },
    {
      "_endTime": 0,
      "_modifiers": {
        "HITMARK_Y_INDEX": 1
      },
      "_overdueTime": 1200,
      "_pictureName": "BeatCorn",
      "_specialMessage": "",
      "_time": 45000,
      "_tolerableDiff": 1000,
      "_tolerance": [
        200,
        500,
        1000
      ],
      "_type": 0,
      "py/object": "__main__.Beat"
    },
    {
      "_endTime": 0,
      "_modifiers": {
        "HITMARK_Y_INDEX": 2
      },
      "_overdueTime": 1200,
      "_pictureName": "BeatCorn",
      "_specialMessage": "",
      "_time": 45333,
      "_tolerableDiff": 1000,
      "_tolerance": [
        200,
        500,
        1000
      ],
      "_type": 0,
      "py/object": "__main__.Beat"
    },
    {
      "_endTime": 0,
      "_modifiers": {
        "HITMARK_Y_INDEX": 2
      },
      "_overdueTime": 1200,
      "_pictureName": "BeatCorn",
      "_specialMessage": "",
      "_time": 46333,
      "_tolerableDiff": 1000,
      "_tolerance": [
        200,
        500,
        1000
      ],
      "_type": 0,
      "py/object": "__main__.Beat"
    },
    {
      "_endTime": 0,
      "_modifiers": {
        "HITMARK_Y_INDEX": 2
      },
      "_overdueTime": 1200,
      "_pictureName": "BeatCorn",
      "_specialMessage": "",
      "_time": 47000,
      "_tolerableDiff": 1000,
      "_tolerance": [
        200,
        500,
        1000
      ],
      "_type": 0,
      "py/object": "__main__.Beat"
    },
    {
      "_endTime": 0,
      "_modifiers": {
        "HITMARK_Y_INDEX": 2
      },
      "_overdueTime": 1200,
      "_pictureName": "BeatCorn",
      "_specialMessage": "",
      "_time": 47083,
      "_tolerableDiff": 1000,
      "_tolerance": [
        200,
        500,
        1000
      ],
      "_type": 0,
      "py/object": "__main__.Beat"
    },
    {
      "_endTime": 47666,
      "_modifiers": {
        "HITMARK_Y_INDEX": 2
      },
      "_overdueTime": 1200,
      "_pictureName": "BeatCorn",
      "_specialMessage": "",
      "_time": 47250,
      "_tolerableDiff": 1000,
      "_tolerance": [
        200,
        500,
        1000
      ],
      "_type": 1,
      "py/object": "__main__.Beat"
    },
    {
      "_endTime": 0,
      "_modifiers": {
        "HITMARK_Y_INDEX": 2
      },
      "_overdueTime": 1200,
      "_pictureName": "BeatCorn",
      "_specialMessage": "",
      "_time": 48000,
      "_tolerableDiff": 1000,
      "_tolerance": [
        200,
        500,
        1000
      ],
      "_type": 0,
      "py/object": "__main__.Beat"
    },
    {
      "_endTime": 0,
      "_modifiers": {
        "HITMARK_Y_INDEX": 3
      },
      "_overdueTime": 1200,
      "_pictureName": "BeatCorn",
      "_specialMessage": "",
      "_time": 49000,
      "_tolerableDiff": 1000,
      "_tolerance": [
        200,
        500,
        1000
      ],
      "_type": 0,
      "py/object": "__main__.Beat"
    },
    {
      "_endTime": 0,
      "_modifiers": {
        "HITMARK_Y_INDEX": 3
      },
      "_overdueTime": 1200,
      "_pictureName": "BeatCorn",
      "_specialMessage": "",
      "_time": 49666,
      "_tolerableDiff": 1000,
      "_tolerance": [
        200,
        500,
        1000
      ],
      "_type": 0,
      "py/object": "__main__.Beat"
    },
    {
      "_endTime": 0,
      "_modifiers": {
        "HITMARK_Y_INDEX": 3
      },
      "_overdueTime": 1200,
      "_pictureName": "BeatCorn",
      "_specialMessage": "",
      "_time": 49750,
      "_tolerableDiff": 1000,
      "_tolerance": [
        200,
        500,
        1000
      ],
      "_type": 0,
      "py/object": "__main__.Beat"
    },
    {
      "_endTime": 50583,
      "_modifiers": {
        "HITMARK_Y_INDEX": 3
      },
      "_overdueTime": 1200,
      "_pictureName": "BeatCorn",
      "_specialMessage": "",
      "_time": 49916,
      "_tolerableDiff": 1000,
      "_tolerance": [
        200,
        500,
        1000
      ],
      "_type": 1,
      "py/object": "__main__.Beat"
    },
    {
      "_endTime": 51250,
      "_modifiers": {
        "HITMARK_Y_INDEX": 2
      },
      "_overdueTime": 1200,
      "_pictureName": "BeatCorn",
      "_specialMessage": "",
      "_time": 50750,
      "_tolerableDiff": 1000,
      "_tolerance": [
        200,
        500,
        1000
      ],
      "_type": 1,
      "py/object": "__main__.Beat"
    },
    {
      "_endTime": 0,
      "_modifiers": {
        "HITMARK_Y_INDEX": 3
      },
      "_overdueTime": 1200,
      "_pictureName": "BeatCorn",
      "_specialMessage": "",
      "_time": 51500,
      "_tolerableDiff": 1000,
      "_tolerance": [
        200,
        500,
        1000
      ],
      "_type": 0,
      "py/object": "__main__.Beat"
    },
    {
      "_endTime": 52333,
      "_modifiers": {
        "HITMARK_Y_INDEX": 1
      },
      "_overdueTime": 1200,
      "_pictureName": "BeatCorn",
      "_specialMessage": "",
      "_time": 51666,
      "_tolerableDiff": 1000,
      "_tolerance": [
        200,
        500,
        1000
      ],
      "_type": 1,
      "py/object": "__main__.Beat"
    },
    {
      "_endTime": 0,
      "_modifiers": {
        "HITMARK_Y_INDEX": 3
      },
      "_overdueTime": 1200,
      "_pictureName": "BeatCorn",
      "_specialMessage": "",
      "_time": 52833,
      "_tolerableDiff": 1000,
      "_tolerance": [
        200,
        500,
        1000
      ],
      "_type": 0,
      "py/object": "__main__.Beat"
    },
    {
      "_endTime": 0,
      "_modifiers": {
        "HITMARK_Y_INDEX": 0
      },
      "_overdueTime": 1200,
      "_pictureName": "BeatCorn",
      "_specialMessage": "",
      "_time": 53000,
      "_tolerableDiff": 1000,
      "_tolerance": [
        200,
        500,
        1000
      ],
      "_type": 0,
      "py/object": "__main__.Beat"
    },
    {
      "_endTime": 0,
      "_modifiers": {
        "HITMARK_Y_INDEX": 3
      },
      "_overdueTime": 1200,
      "_pictureName": "BeatCorn",
      "_specialMessage": "",
      "_time": 53166,
      "_tolerableDiff": 1000,
      "_tolerance": [
        200,
        500,
        1000
      ],
      "_type": 0,
      "py/object": "__main__.Beat"
    },
    {
      "_endTime": 53666,
      "_modifiers": {
        "HITMARK_Y_INDEX": 0
      },
      "_overdueTime": 1200,
      "_pictureName": "BeatCorn",
      "_specialMessage": "",
      "_time": 53333,
      "_tolerableDiff": 1000,
      "_tolerance": [
        200,
        500,
        1000
      ],
      "_type": 1,
      "py/object": "__main__.Beat"
    },
    {
      "_endTime": 54166,
      "_modifiers": {
        "HITMARK_Y_INDEX": 0
      },
      "_overdueTime": 1200,
      "_pictureName": "BeatCorn",
      "_specialMessage": "",
      "_time": 53833,
      "_tolerableDiff": 1000,
      "_tolerance": [
        200,
        500,
        1000
      ],
      "_type": 1,
      "py/object": "__main__.Beat"
    },
    {
      "_endTime": 0,
      "_modifiers": {
        "HITMARK_Y_INDEX": 3
      },
      "_overdueTime": 1200,
      "_pictureName": "BeatCorn",
      "_specialMessage": "",
      "_time": 55333,
      "_tolerableDiff": 1000,
      "_tolerance": [
        200,
        500,
        1000
      ],
      "_type": 0,
      "py/object": "__main__.Beat"
    },
    {
      "_endTime": 0,
      "_modifiers": {
        "HITMARK_Y_INDEX": 2
      },
      "_overdueTime": 1200,
      "_pictureName": "BeatCorn",
      "_specialMessage": "",
      "_time": 55583,
      "_tolerableDiff": 1000,
      "_tolerance": [
        200,
        500,
        1000
      ],
      "_type": 0,
      "py/object": "__main__.Beat"
    },
    {
      "_endTime": 0,
      "_modifiers": {
        "HITMARK_Y_INDEX": 3
      },
      "_overdueTime": 1200,
      "_pictureName": "BeatCorn",
      "_specialMessage": "",
      "_time": 55750,
      "_tolerableDiff": 1000,
      "_tolerance": [
        200,
        500,
        1000
      ],
      "_type": 0,
      "py/object": "__main__.Beat"
    },
    {
      "_endTime": 0,
      "_modifiers": {
        "HITMARK_Y_INDEX": 2
      },
      "_overdueTime": 1200,
      "_pictureName": "BeatCorn",
      "_specialMessage": "",
      "_time": 55916,
      "_tolerableDiff": 1000,
      "_tolerance": [
        200,
        500,
        1000
      ],
      "_type": 0,
      "py/object": "__main__.Beat"
    },
    {
      "_endTime": 56583,
      "_modifiers": {
        "HITMARK_Y_INDEX": 2
      },
      "_overdueTime": 1200,
      "_pictureName": "BeatCorn",
      "_specialMessage": "",
      "_time": 56083,
      "_tolerableDiff": 1000,
      "_tolerance": [
        200,
        500,
        1000
      ],
      "_type": 1,
      "py/object": "__main__.Beat"
    },
    {
      "_endTime": 0,
      "_modifiers": {
        "HITMARK_Y_INDEX": 2
      },
      "_overdueTime": 1200,
      "_pictureName": "BeatCorn",
      "_specialMessage": "",
      "_time": 56833,
      "_tolerableDiff": 1000,
      "_tolerance": [
        200,
        500,
        1000
      ],
      "_type": 0,
      "py/object": "__main__.Beat"
    },
    {
      "_endTime": 0,
      "_modifiers": {
        "HITMARK_Y_INDEX": 1
      },
      "_overdueTime": 1200,
      "_pictureName": "BeatCorn",
      "_specialMessage": "",
      "_time": 58333,
      "_tolerableDiff": 1000,
      "_tolerance": [
        200,
        500,
        1000
      ],
      "_type": 0,
      "py/object": "__main__.Beat"
    },
    {
      "_endTime": 59583,
      "_modifiers": {
        "HITMARK_Y_INDEX": 1
      },
      "_overdueTime": 1200,
      "_pictureName": "BeatCorn",
      "_specialMessage": "",
      "_time": 58583,
      "_tolerableDiff": 1000,
      "_tolerance": [
        200,
        500,
        1000
      ],
      "_type": 1,
      "py/object": "__main__.Beat"
    },
    {
      "_endTime": 60250,
      "_modifiers": {
        "HITMARK_Y_INDEX": 3
      },
      "_overdueTime": 1200,
      "_pictureName": "BeatCorn",
      "_specialMessage": "",
      "_time": 59750,
      "_tolerableDiff": 1000,
      "_tolerance": [
        200,
        500,
        1000
      ],
      "_type": 1,
      "py/object": "__main__.Beat"
    },
    {
      "_endTime": 0,
      "_modifiers": {
        "HITMARK_Y_INDEX": 3
      },
      "_overdueTime": 1200,
      "_pictureName": "BeatCorn",
      "_specialMessage": "",
      "_time": 61000,
      "_tolerableDiff": 1000,
      "_tolerance": [
        200,
        500,
        1000
      ],
      "_type": 0,
      "py/object": "__main__.Beat"
    },
    {
      "_endTime": 62500,
      "_modifiers": {
        "HITMARK_Y_INDEX": 1
      },
      "_overdueTime": 1200,
      "_pictureName": "BeatCorn",
      "_specialMessage": "",
      "_time": 61333,
      "_tolerableDiff": 1000,
      "_tolerance": [
        200,
        500,
        1000
      ],
      "_type": 1,
      "py/object": "__main__.Beat"
    },
    {
      "_endTime": 0,
      "_modifiers": {
        "HITMARK_Y_INDEX": 1
      },
      "_overdueTime": 1200,
      "_pictureName": "BeatCorn",
      "_specialMessage": "",
      "_time": 64000,
      "_tolerableDiff": 1000,
      "_tolerance": [
        200,
        500,
        1000
      ],
      "_type": 0,
      "py/object": "__main__.Beat"
    },
    {
      "_endTime": 0,
      "_modifiers": {
        "HITMARK_Y_INDEX": 3
      },
      "_overdueTime": 1200,
      "_pictureName": "BeatCorn",
      "_specialMessage": "",
      "_time": 64333,
      "_tolerableDiff": 1000,
      "_tolerance": [
        200,
        500,
        1000
      ],
      "_type": 0,
      "py/object": "__main__.Beat"
    }
  ],
  "_screenTime": 1400,
  "_songEndTime": 61666,
  "_soundEffectList": {
    "BadSound": "Error",
    "ExcellentSound": "Hitnormal",
    "MissSound": "Miss",
    "OkaySound": "Hitnormal"
  },
  "_tickInterval": 333.3333333,
  "_title": "Cloudy4\n",
  "_tolerance": [
    22,
    43,
    64
  ],
  "py/object": "__main__.Map"
}