{
"autoplayBgm":false,"autoplayBgs":false,"battleback1Name":"","battleback2Name":"","bgm":{"name":"","pan":0,"pitch":100,"volume":90},"bgs":{"name":"","pan":0,"pitch":100,"volume":90},"disableDashing":false,"displayName":"","encounterList":[],"encounterStep":30,"height":13,"note":"","parallaxLoopX":false,"parallaxLoopY":false,"parallaxName":"","parallaxShow":true,"parallaxSx":0,"parallaxSy":0,"scrollType":0,"specifyBattleback":false,"tilesetId":7,"width":17,"mapId":5,
"data":[0,0,0,0,null,null,null,null,0,0,0,0,0,null,null,null,null,0,0,0,0,0,0,0,0,0,0,0,0,0,null,null,null,null,0,0,0,0,0,0,0,0,0,0,0,0,0,0,0,0,0,0,0,0,0,0,0,0,0,0,0,0,0,0,0,0,0,0,0,0,0,0,0,0,0,0,0,0,0,null,null,0,0,0,0,0,0,0,0,0,0,0,0,0,0,0,null,null,0,0,0,0,0,0,0,0,0,0,0,0,0,0,0,0,0,0,0,0,0,0,0,0,0,0,0,0,0,0,0,0,0,0,0,0,0,0,0,0,0,0,0,0,0,0,0,0,0,0,0,0,0,0,0,0,0,0,0,0,0,0,0,0,0,0,0,0,0,0,0,0,0,0,0,0,0,0,0,0,0,0,0,0,0,0,0,0,0,0,0,0,0,0,0,0,0,0,0,0,null,0,0,0,0,0,null,0,0,0,0,0,0,0,0,0,0,null,0,0,0,0,0,0,0,0,0,null,null,null,null,0,0,0,0,0,null,null,null,null,0,0,0,0,0,0,0,0,0,0,0,0,0,null,null,null,null,0,0,0,0,0,0,0,0,0,0,0,0,0,0,0,0,0,0,0,0,0,0,0,0,0,0,0,0,0,0,0,0,0,0,0,0,0,0,0,0,0,0,0,0,0,null,null,0,0,0,0,0,0,0,0,0,0,0,0,0,0,0,null,null,0,0,0,0,0,0,0,0,0,0,0,0,0,0,0,0,0,0,0,0,0,0,0,0,0,0,0,0,0,0,0,0,0,0,0,0,0,0,0,0,0,0,0,0,0,0,0,0,0,0,0,0,0,0,0,0,0,0,0,0,0,0,0,0,0,0,0,0,0,0,0,0,0,0,0,0,0,0,0,0,0,0,0,0,0,0,0,0,0,0,0,0,0,0,0,0,0,0,0,0,null,0,0,0,0,0,null,0,0,0,0,0,0,0,0,0,0,null,0,0,0,0,0,0,0,0,0,null,null,null,null,0,0,0,0,0,null,null,null,null,0,0,0,0,0,0,0,0,0,0,0,57,0,null,null,null,null,0,0,0,0,0,0,0,0,0,0,0,0,0,0,0,0,0,0,0,0,0,0,0,0,0,0,0,0,0,0,0,0,0,0,0,0,0,0,0,0,0,0,0,0,0,null,null,0,0,0,0,0,75,76,90,91,92,0,0,0,0,0,null,null,0,0,0,0,0,0,0,0,0,0,0,0,0,0,0,0,0,0,0,0,0,0,0,0,0,0,0,0,0,0,0,0,0,0,0,0,0,0,0,0,0,0,0,0,0,0,0,0,0,0,0,0,0,0,0,0,0,0,0,0,0,0,0,0,0,0,0,0,0,0,0,0,0,0,0,0,0,0,0,0,0,0,0,0,0,0,0,0,0,0,0,0,0,0,0,0,0,0,0,0,null,0,0,0,0,0,null,0,0,0,0,0,0,0,0,0,0,null,0,0,0,0,0,29,30,31,0,null,null,null,null,0,0,0,0,0,null,null,null,null,37,38,39,0,0,0,0,0,0,104,105,161,0,null,null,null,null,45,46,47,0,54,55,176,184,0,112,113,65,0,0,0,0,0,0,56,59,0,0,0,0,0,0,0,0,0,0,0,204,205,0,0,64,67,0,0,0,0,0,49,0,0,null,null,0,212,213,0,74,102,102,102,102,102,0,0,87,208,0,null,null,0,211,227,243,82,83,84,98,99,100,0,0,95,216,0,0,0,0,219,235,251,87,129,130,131,132,133,134,135,0,0,155,156,157,177,178,179,0,95,137,138,139,140,141,142,143,0,0,163,164,165,185,186,187,0,128,0,0,161,148,149,150,151,0,0,171,172,173,193,194,195,0,0,154,0,0,201,202,0,0,203,0,0,0,0,181,182,183,0,0,0,162,0,209,210,203,0,217,218,0,null,0,189,190,191,0,null,0,0,0,0,0,0,0,225,226,0,null,0,197,198,199,0,0,0,0,0,null,null,null,null,0,0,0,0,0,null,null,null,null,0,0,0,0,0,0,0,0,0,0,0,0,0,null,null,null,null,0,0,0,0,0,0,0,0,0,0,0,0,0,0,0,0,0,0,0,0,0,0,0,0,0,0,0,0,0,0,0,0,0,0,0,0,0,0,0,0,0,0,0,0,0,null,null,0,0,0,0,0,0,0,0,0,0,0,0,0,0,0,null,null,0,0,0,0,0,0,0,0,0,0,0,0,0,0,0,0,0,0,0,0,0,0,0,0,0,0,0,0,0,0,0,0,0,0,0,0,0,0,0,0,0,0,0,0,0,0,0,0,0,0,0,0,0,0,0,0,0,0,0,0,0,0,0,0,0,0,0,0,0,0,0,0,0,0,0,0,0,0,0,0,0,0,0,0,0,0,0,0,0,0,0,0,0,0,0,0,0,0,0,0,null,0,0,0,0,0,null,0,0,0,0,0,0,0,0,0,0,null,0,0,0,0,0,0,0,0,0,null,null,null,null,0,0,0,0,0,null,null,null,null,0,0,0,0,0,0,0,0,0,0,0,0,0,null,null,null,null,0,0,0,0,0,0,0,0,0,0,0,0,0,0,0,0,0,0,0,0,0,0,0,0,0,0,0,0,0,0,0,0,0,0,0,0,0,0,0,0,0,0,0,0,0,null,null,0,0,0,0,0,0,0,0,0,0,0,0,0,0,0,null,null,0,0,0,0,0,0,0,0,0,0,0,0,0,0,0,0,0,0,0,0,0,0,0,0,0,0,0,0,0,0,0,0,0,0,0,0,0,0,0,0,0,0,0,0,0,0,0,0,0,0,0,0,0,0,0,0,0,0,0,0,0,0,0,0,0,0,0,0,0,0,0,0,0,0,0,0,0,0,0,0,0,0,0,0,0,0,0,0,0,0,0,0,0,0,0,0,0,0,0,0,null,0,0,0,0,0,null,0,0,0,0,0,0,0,0,0,0,null,0,0,0,0,0],
"events":[
]
}