[
null,
{"id":1,"expanded":false,"name":"MAP001","order":1,"parentId":0,"scrollX":1228.5,"scrollY":668.25},
{"id":2,"expanded":false,"name":"Backroom - Official","order":8,"parentId":12,"scrollX":1404,"scrollY":763.7142857142857},
{"id":3,"expanded":true,"name":"Bar - Official","order":9,"parentId":12,"scrollX":1390.2857142857142,"scrollY":763.7142857142857},
null,
{"id":5,"expanded":false,"name":"Asset tests","order":2,"parentId":0,"scrollX":728,"scrollY":396},
{"id":6,"expanded":false,"name":"VS 1 Hallway!","order":3,"parentId":0,"scrollX":655.2,"scrollY":356.4},
{"id":7,"expanded":true,"name":"Hallway - VS1","order":4,"parentId":0,"scrollX":893.6,"scrollY":350},
{"id":8,"expanded":false,"name":"Test","order":5,"parentId":0,"scrollX":655.2,"scrollY":356.4},
{"id":9,"expanded":false,"name":"Greenroom - Official","order":11,"parentId":12,"scrollX":1404,"scrollY":763.7142857142857},
{"id":10,"expanded":true,"name":"wheattest2","order":6,"parentId":0,"scrollX":819,"scrollY":445.5},
{"id":11,"expanded":false,"name":"Hallway - Official","order":10,"parentId":12,"scrollX":1390.2857142857142,"scrollY":750},
{"id":12,"expanded":true,"name":"Official Levels","order":7,"parentId":0,"scrollX":1404,"scrollY":763.7142857142857},
{"id":13,"expanded":false,"name":"Hallway2 - Official","order":12,"parentId":12,"scrollX":1390.2857142857142,"scrollY":916.2857142857142},
{"id":14,"expanded":false,"name":"Stage - Official","order":13,"parentId":12,"scrollX":1390.2857142857142,"scrollY":763.7142857142857}
]